Position,Name,Salary,GameInfo,AvgPointsPerGame,teamAbbrev
OF,Stephen Piscotty,4100,ChC@StL 08:15PM ET,7.86,StL
3B,Matt Carpenter,4300,ChC@StL 08:15PM ET,8.169,StL
OF,Randal Grichuk,3900,ChC@StL 08:15PM ET,7.859,StL
2B,Kolten Wong,3700,ChC@StL 08:15PM ET,7.038,StL
SS,Jhonny Peralta,3300,ChC@StL 08:15PM ET,6.778,StL
OF,Jason Heyward,3900,ChC@StL 08:15PM ET,7.405,StL
C,Yadier Molina,2700,ChC@StL 08:15PM ET,5.651,StL
SP,Jaime Garcia,10600,ChC@StL 08:15PM ET,20.147,StL
1B,Matt Adams,2900,ChC@StL 08:15PM ET,5.395,StL
RP,Carlos Villanueva,4000,ChC@StL 08:15PM ET,5.266,StL
RP,Miguel Socolovich,4000,ChC@StL 08:15PM ET,3.924,StL
RP,Trevor Rosenthal,4000,ChC@StL 08:15PM ET,3.717,StL
RP,Kevin Siegrist,4000,ChC@StL 08:15PM ET,3.596,StL
RP,Jonathan Broxton,4000,ChC@StL 08:15PM ET,2.34,StL
RP,Mitch Harris,4000,ChC@StL 08:15PM ET,2.223,StL
RP,Steve Cishek,4000,ChC@StL 08:15PM ET,2.208,StL
RP,Seth Maness,4000,ChC@StL 08:15PM ET,1.878,StL
RP,Randy Choate,4000,ChC@StL 08:15PM ET,0.789,StL
OF,Eddie Rosario,3600,Min@KC 08:10PM ET,6.848,Min
2B,Brian Dozier,4400,Min@KC 08:10PM ET,8.564,Min
OF,Aaron Hicks,3300,Min@KC 08:10PM ET,6.726,Min
OF,Torii Hunter,3500,Min@KC 08:10PM ET,6.675,Min
3B,Trevor Plouffe,3700,Min@KC 08:10PM ET,7.155,Min
C,Kurt Suzuki,2600,Min@KC 08:10PM ET,4.862,Min
1B,Joe Mauer,3500,Min@KC 08:10PM ET,6.391,Min
3B/SS,Eduardo Nunez,2900,Min@KC 08:10PM ET,4.934,Min
SS,Danny Santana,2600,Min@KC 08:10PM ET,4.519,Min
RP,J.R. Graham,4000,Min@KC 08:10PM ET,3.222,Min
RP,A.J. Achter,4000,Min@KC 08:10PM ET,2.964,Min
RP,Glen Perkins,4000,Min@KC 08:10PM ET,2.866,Min
RP,Kevin Jepsen,4000,Min@KC 08:10PM ET,2.573,Min
RP,Neal Cotts,4000,Min@KC 08:10PM ET,2.537,Min
RP,Casey Fien,4000,Min@KC 08:10PM ET,2.215,Min
RP,Blaine Boyer,4000,Min@KC 08:10PM ET,2.015,Min
RP,Ryan O'Rourke,4000,Min@KC 08:10PM ET,1.724,Min
RP,Brian Duensing,4000,Min@KC 08:10PM ET,1.565,Min
RP,Michael Tonkin,4000,Min@KC 08:10PM ET,1.228,Min
RP,Logan Darnell,4900,Min@KC 08:10PM ET,0,Min
RP,Alex Meyer,6100,Min@KC 08:10PM ET,-1.1,Min
SP,Tyler Duffey,6900,Min@KC 08:10PM ET,13.758,Min
SP,Johnny Cueto,8700,Min@KC 08:10PM ET,19.248,KC
C,Salvador Perez,3500,Min@KC 08:10PM ET,6.297,KC
OF,Lorenzo Cain,5200,Min@KC 08:10PM ET,9.467,KC
3B,Mike Moustakas,4000,Min@KC 08:10PM ET,7.27,KC
1B,Eric Hosmer,4500,Min@KC 08:10PM ET,8.173,KC
SS,Alcides Escobar,3400,Min@KC 08:10PM ET,6.571,KC
OF,Alex Gordon,4000,Min@KC 08:10PM ET,7.22,KC
OF,Jarrod Dyson,3200,Min@KC 08:10PM ET,5.618,KC
2B,Omar Infante,2600,Min@KC 08:10PM ET,4.479,KC
RP,Kris Medlen,4700,Min@KC 08:10PM ET,8.05,KC
RP,Yohan Pino,4400,Min@KC 08:10PM ET,5.7,KC
RP,Wade Davis,4000,Min@KC 08:10PM ET,4.285,KC
RP,Kelvin Herrera,4000,Min@KC 08:10PM ET,3.182,KC
RP,Luke Hochevar,4000,Min@KC 08:10PM ET,3.169,KC
RP,Greg Holland,4000,Min@KC 08:10PM ET,2.972,KC
RP,Ryan Madson,4000,Min@KC 08:10PM ET,2.68,KC
RP,Franklin Morales,4000,Min@KC 08:10PM ET,2.677,KC
RP,Scott Alexander,4000,Min@KC 08:10PM ET,1.05,KC
RP,Miguel Almonte,4000,Min@KC 08:10PM ET,0.75,KC
SP,Chris Sale,13300,Cle@CWS 08:10PM ET,26.202,CWS
OF,Adam Eaton,4000,Cle@CWS 08:10PM ET,7.93,CWS
1B,Jose Abreu,4500,Cle@CWS 08:10PM ET,8.623,CWS
OF,Melky Cabrera,3300,Cle@CWS 08:10PM ET,6.739,CWS
OF,Avisail Garcia,3700,Cle@CWS 08:10PM ET,6.54,CWS
3B/SS,Tyler Saladino,3100,Cle@CWS 08:10PM ET,6.531,CWS
SS,Alexei Ramirez,3300,Cle@CWS 08:10PM ET,6.206,CWS
C,Geovany Soto,2400,Cle@CWS 08:10PM ET,4.687,CWS
2B,Carlos Sanchez,2300,Cle@CWS 08:10PM ET,4.43,CWS
3B,Mike Olt,2900,Cle@CWS 08:10PM ET,3.125,CWS
RP,Nate Jones,4000,Cle@CWS 08:10PM ET,4.875,CWS
RP,David Robertson,4000,Cle@CWS 08:10PM ET,4.619,CWS
RP,Matt Albers,4000,Cle@CWS 08:10PM ET,4.315,CWS
RP,Frankie Montas,4000,Cle@CWS 08:10PM ET,4.25,CWS
RP,Daniel Webb,4000,Cle@CWS 08:10PM ET,2.745,CWS
RP,Zach Duke,4000,Cle@CWS 08:10PM ET,2.739,CWS
RP,Dan Jennings,4000,Cle@CWS 08:10PM ET,2.487,CWS
RP,Jake Petricka,4000,Cle@CWS 08:10PM ET,1.628,CWS
SP,Josh Tomlin,12700,Cle@CWS 08:10PM ET,25.4,Cle
SS,Francisco Lindor,4400,Cle@CWS 08:10PM ET,7.671,Cle
2B,Jason Kipnis,4900,Cle@CWS 08:10PM ET,8.42,Cle
C,Yan Gomes,3500,Cle@CWS 08:10PM ET,6.13,Cle
OF,Michael Brantley,5100,Cle@CWS 08:10PM ET,8.772,Cle
1B,Carlos Santana,4200,Cle@CWS 08:10PM ET,7.473,Cle
3B,Lonnie Chisenhall,3200,Cle@CWS 08:10PM ET,5.573,Cle
OF,Abraham Almonte,2700,Cle@CWS 08:10PM ET,5.172,Cle
OF,Jerry Sands,2600,Cle@CWS 08:10PM ET,4.514,Cle
3B/SS,Mike Aviles,2500,Cle@CWS 08:10PM ET,4.036,Cle
RP,Shawn Armstrong,4000,Cle@CWS 08:10PM ET,5.175,Cle
RP,Zach McAllister,4000,Cle@CWS 08:10PM ET,4.06,Cle
RP,Jeff Manship,4000,Cle@CWS 08:10PM ET,4.024,Cle
RP,Cody Allen,4000,Cle@CWS 08:10PM ET,3.591,Cle
RP,Ryan Webb,4000,Cle@CWS 08:10PM ET,2.977,Cle
RP,Austin Adams,4000,Cle@CWS 08:10PM ET,2.959,Cle
RP,Bryan Shaw,4000,Cle@CWS 08:10PM ET,2.325,Cle
RP,Kyle Crockett,4000,Cle@CWS 08:10PM ET,1.27,Cle
RP,Giovanni Soto,4000,Cle@CWS 08:10PM ET,0.75,Cle
SP,Jake Arrieta,14300,ChC@StL 08:15PM ET,25.666,ChC
1B,Anthony Rizzo,4600,ChC@StL 08:15PM ET,9.343,ChC
OF,Dexter Fowler,3800,ChC@StL 08:15PM ET,8.031,ChC
3B,Kris Bryant,4400,ChC@StL 08:15PM ET,8.96,ChC
2B/OF,Chris Coghlan,3000,ChC@StL 08:15PM ET,6.102,ChC
C,Miguel Montero,3200,ChC@StL 08:15PM ET,6.032,ChC
2B/SS,Addison Russell,3000,ChC@StL 08:15PM ET,5.853,ChC
SS,Starlin Castro,2700,ChC@StL 08:15PM ET,5.126,ChC
OF,Matt Szczur,2000,ChC@StL 08:15PM ET,2.707,ChC
RP,Hector Rondon,4000,ChC@StL 08:15PM ET,3.498,ChC
RP,Justin Grimm,4000,ChC@StL 08:15PM ET,3.372,ChC
RP,Pedro Strop,4000,ChC@StL 08:15PM ET,3.083,ChC
RP,Tommy Hunter,4000,ChC@StL 08:15PM ET,2.419,ChC
RP,Fernando Rodney,4000,ChC@StL 08:15PM ET,2.172,ChC
